{
    "repository":  "https://gitlab.com/kontur-tasks/trytobuild",
    "CheckTime":  "",
    "e-mail":  "",
    "nugetKey":  "oy2e2evl42kyetm5ehtalb55mm7renyevnpygzlmeyhyue",
    "hashCommit":  "",
    "title":  "",
    "User":  "",
    "output":  "",
    "package":  {
                    "id":  "",
                    "description":  "",
                    "autor":  ""
                }
}
